<svg width="37" height="9" viewBox="0 0 37 9" fill="none" xmlns="http://www.w3.org/2000/svg">
<path d="M36.3536 4.85355C36.5488 4.65829 36.5488 4.34171 36.3536 4.14645L33.1716 0.964466C32.9763 0.769204 32.6597 0.769204 32.4645 0.964466C32.2692 1.15973 32.2692 1.47631 32.4645 1.67157L35.2929 4.5L32.4645 7.32843C32.2692 7.52369 32.2692 7.84027 32.4645 8.03553C32.6597 8.2308 32.9763 8.2308 33.1716 8.03553L36.3536 4.85355ZM0 5H36V4H0V5Z" fill="#A73A5A"/>
</svg>
