<svg width="38" height="8" viewBox="0 0 38 8" fill="none" xmlns="http://www.w3.org/2000/svg">
<path d="M36.9023 4.35889C37.1005 4.16068 37.1005 3.83932 36.9023 3.64111L33.6723 0.4111C33.4741 0.21289 33.1527 0.21289 32.9545 0.4111C32.7563 0.609309 32.7563 0.93067 32.9545 1.12888L35.8256 4L32.9545 6.87112C32.7563 7.06933 32.7563 7.39069 32.9545 7.5889C33.1527 7.78711 33.4741 7.78711 33.6723 7.5889L36.9023 4.35889ZM0 4.50755H36.5434V3.49245H0V4.50755Z" fill="#0B4946"/>
</svg>
